Carga de datos y exploración de estructuras · HEMI
…
Edit on GitHub
Cargar y explorar las estructuras de datos del IPC
Cargamos DrWatson y activamos el proyecto. Esto a su vez, carga los datos del IPC de Guatemala en las variables GT00, GT10 y GTDATA. Las primeras dos representan las bases del IPC 2000 y 2010. La estructura GTDATA representa una colección de bases del IPC, la cual conforma la estructura del IPC del país (GTDATA es de tipo UniformCountryStructure, el cual es un tipo concreto del tipo CountryStructure).

using DrWatson
@quickactivate :HEMI
Veamos la estructura de GT00:

GT00

VarCPIBase{Float32, Float32}: 120 períodos × 218 gastos básicos Jan-01-Dec-10
┌─────┬────────────┬──────────┬─────────┬──────────┬─────────┬──────────┬───────
│ Row │      Dates │        1 │       2 │        3 │       4 │        5 │      ⋯
│     │            │ 0.483952 │ 2.82638 │ 0.341395 │ 1.69133 │ 0.307019 │ 0.82 ⋯
├─────┼────────────┼──────────┼─────────┼──────────┼─────────┼──────────┼───────
│   1 │ 2001-01-01 │   0.5500 │  3.2300 │   1.6600 │  6.4700 │   0.3600 │   0. ⋯
│   2 │ 2001-02-01 │   0.9150 │  1.5402 │   1.0525 │  1.7939 │   1.0064 │   0. ⋯
│   3 │ 2001-03-01 │  -0.0296 │  2.7857 │   2.1123 │ -4.2628 │  -0.0493 │   0. ⋯
│   4 │ 2001-04-01 │   0.4633 │ -0.4270 │   1.2297 │  3.9225 │   0.4935 │   0. ⋯
│   5 │ 2001-05-01 │   0.8439 │ -1.0813 │   0.6686 │  1.2334 │  -0.0098 │   0. ⋯
│   6 │ 2001-06-01 │   0.4476 │  2.7516 │   0.4677 │  2.7208 │   0.8938 │   0. ⋯
│   7 │ 2001-07-01 │   1.0850 │  3.3749 │   0.5214 │  4.5126 │   2.3072 │   0. ⋯
│   8 │ 2001-08-01 │   1.7537 │  3.5220 │   2.0563 │  2.3210 │   1.6367 │   0. ⋯
│  ⋮  │     ⋮      │    ⋮     │    ⋮    │    ⋮     │    ⋮    │    ⋮     │    ⋮ ⋱
│ 114 │ 2010-06-01 │   0.3799 │  0.3909 │   1.7975 │ -0.2597 │   1.0838 │  -0. ⋯
│ 115 │ 2010-07-01 │  -0.0821 │  0.0854 │   0.6425 │  0.4367 │   0.4642 │   1. ⋯
│ 116 │ 2010-08-01 │  -0.2647 │  0.7285 │   0.8188 │  1.7519 │  -0.1485 │   2. ⋯
│ 117 │ 2010-09-01 │   0.1739 │ -0.3252 │  -0.2030 │  2.9812 │   0.2920 │   2. ⋯
│ 118 │ 2010-10-01 │   0.2787 │ -0.2748 │  -0.3245 │  0.6324 │   0.1703 │  -2. ⋯
│ 119 │ 2010-11-01 │  -0.1822 │  1.0349 │  -0.1798 │ -0.3013 │  -0.1042 │  -2. ⋯
│ 120 │ 2010-12-01 │  -0.1460 │  0.3434 │  -0.1558 │  0.6284 │  -0.0110 │   0. ⋯
└─────┴────────────┴──────────┴─────────┴──────────┴─────────┴──────────┴───────
                                                213 columns and 105 rows omitted

Este tipo contiene los siguientes campos:
la matriz de variaciones intermensuales de índices de precios en el campo v.

propertynames(GT00)

(:v, :w, :dates, :baseindex)
De manera similar, los datos de la base 2010 del IPC:

GT10

VarCPIBase{Float32, Float32}: 132 períodos × 279 gastos básicos Jan-11-Dec-21
┌─────┬────────────┬─────────┬─────────┬─────────┬─────────┬─────────┬──────────
│ Row │      Dates │       1 │       2 │       3 │       4 │       5 │       6 ⋯
│     │            │ 0.63244 │ 0.17119 │ 1.33671 │ 0.93761 │ 2.61053 │ 0.08589 ⋯
├─────┼────────────┼─────────┼─────────┼─────────┼─────────┼─────────┼──────────
│   1 │ 2011-01-01 │  0.1600 │  0.5200 │  8.1000 │  0.3400 │  3.3000 │  1.5900 ⋯
│   2 │ 2011-02-01 │ -0.1498 │  0.7163 │ 11.0546 │  0.9866 │  3.9593 │  1.2304 ⋯
│   3 │ 2011-03-01 │  0.4300 │  0.2173 │  8.2882 │  1.1842 │  1.9648 │  0.9238 ⋯
│   4 │ 2011-04-01 │  1.2445 │  7.6089 │  3.2769 │  0.5267 │  2.1826 │  0.2409 ⋯
│   5 │ 2011-05-01 │  0.1672 │  4.5888 │  1.9067 │ -0.0873 │  0.9384 │  2.2684 ⋯
│   6 │ 2011-06-01 │ -0.4516 │  2.4958 │ 13.3606 │ -0.2136 │  0.2479 │  2.1617 ⋯
│   7 │ 2011-07-01 │  0.6114 │  2.1104 │  7.3436 │  0.4476 │  0.7243 │  1.2052 ⋯
│   8 │ 2011-08-01 │  0.1568 │  1.2133 │  1.4175 │ -0.6007 │  1.0786 │  1.7907 ⋯
│  ⋮  │     ⋮      │    ⋮    │    ⋮    │    ⋮    │    ⋮    │    ⋮    │    ⋮    ⋱
│ 126 │ 2021-06-01 │ -0.3169 │  0.2821 │  2.6254 │  0.2489 │ -0.0061 │ -0.6842 ⋯
│ 127 │ 2021-07-01 │  0.8327 │  0.9814 │  6.3617 │  0.1041 │  0.0123 │ -0.2742 ⋯
│ 128 │ 2021-08-01 │  0.9610 │  0.4082 │  3.5601 │  0.8242 │  0.0000 │  0.6304 ⋯
│ 129 │ 2021-09-01 │  0.4610 │  0.3678 │ -2.7340 │  0.1587 │  0.0615 │  0.0067 ⋯
│ 130 │ 2021-10-01 │  0.2443 │  0.1543 │ -2.6329 │  0.3407 │  0.1843 │  1.0129 ⋯
│ 131 │ 2021-11-01 │  0.6867 │  4.3459 │ -2.1032 │  0.8055 │  0.5640 │  0.2837 ⋯
│ 132 │ 2021-12-01 │  0.6087 │  2.1101 │  0.8253 │  0.0627 │  0.3841 │  5.7430 ⋯
└─────┴────────────┴─────────┴─────────┴─────────┴─────────┴─────────┴──────────
                                                273 columns and 117 rows omitted
…
GTDATA

UniformCountryStructure{2, Float32, Float32} con 2 bases
└─→ VarCPIBase{Float32, Float32}: 120 períodos × 218 gastos básicos Jan-01-Dec-10
└─→ VarCPIBase{Float32, Float32}: 132 períodos × 279 gastos básicos Jan-11-Dec-21

Obteniendo datos en direferentes rangos
Esta estructura de país puede ser indexada para obtener las bases de tipo VarCPIBase que contiene. Por ejemplo:

GTDATA[1]

VarCPIBase{Float32, Float32}: 120 períodos × 218 gastos básicos Jan-01-Dec-10
┌─────┬────────────┬──────────┬─────────┬──────────┬─────────┬──────────┬───────
│ Row │      Dates │        1 │       2 │        3 │       4 │        5 │      ⋯
│     │            │ 0.483952 │ 2.82638 │ 0.341395 │ 1.69133 │ 0.307019 │ 0.82 ⋯
├─────┼────────────┼──────────┼─────────┼──────────┼─────────┼──────────┼───────
│   1 │ 2001-01-01 │   0.5500 │  3.2300 │   1.6600 │  6.4700 │   0.3600 │   0. ⋯
│   2 │ 2001-02-01 │   0.9150 │  1.5402 │   1.0525 │  1.7939 │   1.0064 │   0. ⋯
│   3 │ 2001-03-01 │  -0.0296 │  2.7857 │   2.1123 │ -4.2628 │  -0.0493 │   0. ⋯
│   4 │ 2001-04-01 │   0.4633 │ -0.4270 │   1.2297 │  3.9225 │   0.4935 │   0. ⋯
│   5 │ 2001-05-01 │   0.8439 │ -1.0813 │   0.6686 │  1.2334 │  -0.0098 │   0. ⋯
│   6 │ 2001-06-01 │   0.4476 │  2.7516 │   0.4677 │  2.7208 │   0.8938 │   0. ⋯
│   7 │ 2001-07-01 │   1.0850 │  3.3749 │   0.5214 │  4.5126 │   2.3072 │   0. ⋯
│   8 │ 2001-08-01 │   1.7537 │  3.5220 │   2.0563 │  2.3210 │   1.6367 │   0. ⋯
│  ⋮  │     ⋮      │    ⋮     │    ⋮    │    ⋮     │    ⋮    │    ⋮     │    ⋮ ⋱
│ 114 │ 2010-06-01 │   0.3799 │  0.3909 │   1.7975 │ -0.2597 │   1.0838 │  -0. ⋯
│ 115 │ 2010-07-01 │  -0.0821 │  0.0854 │   0.6425 │  0.4367 │   0.4642 │   1. ⋯
│ 116 │ 2010-08-01 │  -0.2647 │  0.7285 │   0.8188 │  1.7519 │  -0.1485 │   2. ⋯
│ 117 │ 2010-09-01 │   0.1739 │ -0.3252 │  -0.2030 │  2.9812 │   0.2920 │   2. ⋯
│ 118 │ 2010-10-01 │   0.2787 │ -0.2748 │  -0.3245 │  0.6324 │   0.1703 │  -2. ⋯
│ 119 │ 2010-11-01 │  -0.1822 │  1.0349 │  -0.1798 │ -0.3013 │  -0.1042 │  -2. ⋯
│ 120 │ 2010-12-01 │  -0.1460 │  0.3434 │  -0.1558 │  0.6284 │  -0.0110 │   0. ⋯
└─────┴────────────┴──────────┴─────────┴──────────┴─────────┴──────────┴───────
                                                213 columns and 105 rows omitted
…
