InflationEvalTools · HEMI
…
julia> run_batch(gtdata_eval, dict_prueba, savepath)
...
Una vez generadas todas las simulaciones podemos obtener los datos mediante la función collect_results. Esta función lee los resultados desde savepath y los presenta en un DataFrame.

julia> df = collect_results(savepath); 
[ Info: Scanning folder `savepath` for result files.
[ Info: Added 31 entries.

julia> select(df, :measure, :mse)
31×2 DataFrame
 Row │ measure                   mse       
     │ String?                   Float32?  
─────┼─────────────────────────────────────
   1 │ Percentil ponderado 50.0  17.9208
   2 │ Percentil ponderado 51.0  16.8813
   3 │ Percentil ponderado 52.0  15.874
   4 │ Percentil ponderado 53.0  14.876
  ⋮  │            ⋮                  ⋮
  28 │ Percentil ponderado 77.0   2.85501
  29 │ Percentil ponderado 78.0   4.32532
  30 │ Percentil ponderado 79.0   6.33717
  31 │ Percentil ponderado 80.0   9.02473
                            23 rows omitted
…
